﻿CS+ V8.06.00  [03 Jun 2021] [Property - RL78 E2 Lite Property]
Tuesday, January 11, 2022 10:51:38 AM
Project Name :sHMI_Version1
Tool : R5F10DMJ, CC-RL, RL78 E2 Lite, Program Analyzer
------------------------------------------------------------------------------
 Category                      Name                                               Value                              Active help
[Connect Settings]
 Internal ROM/RAM                                                                                                    
                               Size of internal ROM[KBytes]                       256                                Displays the size of the internal ROM.
                               Size of internal RAM[Bytes]                        16384                              Displays the size of the internal RAM.
                               Size of DataFlash memory[KBytes]                   8                                  Displays the size of the DataFlash memory area of the selected microcontroller.
 Clock                                                                                                               
                               Main clock frequency [MHz]                         Using internal clock               Specifies the main clock frequency. To input a value other than available choices, input the value directly from the keyboard.
                               Sub clock frequency[kHz]                           Using internal clock               Specifies the sub clock frequency to be input to the CPU and peripheral devices. To input a value other than available choices, input the value directly from the keyboard.
                               Monitor clock                                      System                             Selects the clock at which the monitor program operates when the user program is stopped. If "System" is selected, the operation is done with the main clock. If "User" is selected, the operation is done with the clock specified in the user program.
 Connection with Emulator                                                                                            
                               Emulator serial No.                                                                   Select the serial No. of the emulator.
 Connection with Target Board                                                                                        
                               Power target from the emulator.(MAX 200mA)         No                                 Select whether or not to supply power from the emulator.
 Flash                                                                                                               
                               Security ID                                        00000000000000000000               Sets the security ID (20 digits in hexadecimal) for reading the code in the internal ROM or internal flash memory. For details on security ID authentication, see the Emulator user's manual.
                               Permit flash programming                           Yes                                Selects whether to permit flash programming. If flash programming is prohibited, any rewriting of the flash area from debug tools becomes impossible.
                               Erase flash ROM when starting                      No                                 Selects whether to erase the flash ROM before connecting to the debug tool. If "Yes" is selected, erase code flash and data flash and the connection to the debug tool are executed when the [Connect to Debug Tool] menu is selected. This item becomes "No" after the connection to the debug tool has been established.　When connecting by a hot plug-in, this setting is ignored, and becomes same as selected "No".
[Debug Tool Settings]
 Memory                                                                                                              
                               +Memory mappings                                   [9]                                For the addition and deletion of memory mapping, or the change in start address or end address, select the [...] button and make the desired change in the memory mapping dialog box.
                                +[0]                                              Internal ROM area                  
                                 Memory type                                      Internal ROM area                  Displays a type of the memory area.
                                 Start address                                    0                                  Displays the start address of the memory area.
                                 End address                                      3FFFF                              Displays the end address of the memory area.
                                +[1]                                              Non-map area                       
                                 Memory type                                      Non-map area                       Displays a type of the memory area.
                                 Start address                                    40000                              Displays the start address of the memory area.
                                 End address                                      EFFFF                              Displays the end address of the memory area.
                                +[2]                                              SFR area                           
                                 Memory type                                      SFR area                           Displays a type of the memory area.
                                 Start address                                    F0000                              Displays the start address of the memory area.
                                 End address                                      F07FF                              Displays the end address of the memory area.
                                +[3]                                              Non-map area                       
                                 Memory type                                      Non-map area                       Displays a type of the memory area.
                                 Start address                                    F0800                              Displays the start address of the memory area.
                                 End address                                      F0FFF                              Displays the end address of the memory area.
                                +[4]                                              DataFlash area                     
                                 Memory type                                      DataFlash area                     Displays a type of the memory area.
                                 Start address                                    F1000                              Displays the start address of the memory area.
                                 End address                                      F2FFF                              Displays the end address of the memory area.
                                +[5]                                              Mirror area                        
                                 Memory type                                      Mirror area                        Displays a type of the memory area.
                                 Start address                                    F3000                              Displays the start address of the memory area.
                                 End address                                      FBEFF                              Displays the end address of the memory area.
                                +[6]                                              Internal RAM area                  
                                 Memory type                                      Internal RAM area                  Displays a type of the memory area.
                                 Start address                                    FBF00                              Displays the start address of the memory area.
                                 End address                                      FFEDF                              Displays the end address of the memory area.
                                +[7]                                              Register area                      
                                 Memory type                                      Register area                      Displays a type of the memory area.
                                 Start address                                    FFEE0                              Displays the start address of the memory area.
                                 End address                                      FFEFF                              Displays the end address of the memory area.
                                +[8]                                              SFR area                           
                                 Memory type                                      SFR area                           Displays a type of the memory area.
                                 Start address                                    FFF00                              Displays the start address of the memory area.
                                 End address                                      FFFFF                              Displays the end address of the memory area.
                               Verify on writing to memory                        Yes                                If "Yes" is selected, verification is executed if a value is changed in the watch panel or memory panel when download has been performed.
 Access Memory While Running                                                                                         
                               Access by stopping execution                       No                                 Specifies whether to access a memory area by momentarily stopping execution, in the case of a memory area that cannot be accessed during execution.
                               Update display during the execution                Yes                                Specifies whether to update the display of the watch panel and memory panel during execution. Similar processing to pushing of the toolbar of the panel of [Performs update to the latest information.] button is done. The processed interval is set "Update display during the execution" property.
                               Display update interval[ms]                        500                                Specifies the interval for updating the watch panel and memory panel display during execution in units of 100 ms.
 Break                                                                                                               
                               First using type of breakpoint                     Software break                     Specifies the type of the breakpoint to be preferentially used when setting breakpoints for execution source or execution address.
                               Stop emulation of timer group when stopping        No                                 Specifies whether to stop the emulation function of the timer-related peripherals of the emulator when stopping.
                               Stop emulation of serial group when stopping       No                                 Specifies whether to stop the emulation function of the serial-related peripherals of the emulator when stopping.
 Mask for Input Signal                                                                                               
                               Mask TARGET RESET signal                           No                                 Performs masking so that the TARGET RESET pin signal is not input to the emulator.
                               Mask INTERNAL RESET signal                         No                                 Performs masking so that the INTERNAL RESET pin signal is not input to the emulator.
 Step function                                                                                                       
                               Skip specified section                             No                                 Specifies whether to skip specified section in the step-in execution.
[Download File Settings]
 Download                                                                                                            
                               +Download files                                    [1]                                Specifies the file to be downloaded. The download file dialog box is opened by pressing the [...] button. In the download file dialog box, specify the file to be downloaded.
                                +[0]                                              DefaultBuild\sHMI_Version1.abs     
                                 File                                             DefaultBuild\sHMI_Version1.abs     Specify the file to be downloaded.
                                 File type                                        Load module file                   Specify the type of file to be downloaded.
                                 Download object                                  Yes                                Specify whether to download the object from the selected file.
                                 Download symbol information                      Yes                                Specify whether to download the symbol information from the selected file.
                                 Generate the information for input completion    Yes                                If you use the symbol name completion function in "Watch panel", "Memory panel", select is "Yes".Details of the place that you can use the symbol name completion function refer to the help.Download time is long in order to generate this information　during the download.
                               CPU Reset after download                           Yes                                Specifies whether to reset the CPU after the selected file has been downloaded.
                               Download Mode                                      Speed priority                     Specifies download mode.If [Speed priority] is selected, the previous value in free space of the first data before and after the final data is retained. But, free space between the first data and the final data will be filled with "FFH". Download speed is faster, because the writing data reduced and write at once.If [Data priority] is selected, the previous value in free space is retained. Download speed is very slow, because read the data of free space.
                               Erase flash ROM before download                    No                                 Specifies whether to erase the flash ROM before downloading. If "Yes" is selected, erase only area where there is download data.
                               Automatic change method of event setting position  Suspend event                      Specifies the method of the re-setting when the event setting position (address where the event was set) set by downloading it again becomes on the way of the instruction.The setting is applied to the event setting position without debugging information.
                               Check reserved area overwriting                    Yes                                Specifies whether to check the reserved area overwriting when downloading.
 Debug Information                                                                                                   
                               Execute to the specified symbol after CPU Reset    Yes                                Specifies whether to execute the program until the specified symbol position following CPU reset.
                               Specified symbol                                   _main                              Specifies the position at which program execution is to be stopped following CPU reset.Specify the label name in case of assembly language and specify the function name in case of C language.
                               The upper limit size of the memory usage [MBytes]  500                                Specify the upper limit size [MBytes] of a memory usage to hold a debugging information.If a memory shortage error occurs, the problem may be resolved by lowering the upper limit size.However, when lowering the upper limit size, the responsiveness of the debugging tool may be lowered.
[Hook Transaction Settings]
 Hook Transaction Settings                                                                                           
                               Before download                                    Before download[0]                 Specify the processing to be executed immediately before download, in the following format.<format>- SFR/IOR name value- Register name value- Source Python script path- # commentDelimit SFR/IOR name or Register name and the value by the space or the tab character. Delimit Source and python script path by the space or the tab character. Specify the value by the decimal number or the hexadecimal number. Specify Python script path by the absolute path or the relative to the project. When the head of the line starts by #, it treats as a comment line.
                               After download                                     After download[0]                  Specify the processing to be executed immediately after download, in the following format.<format>- SFR/IOR name value- Register name value- Source Python script path- # commentDelimit SFR/IOR name or Register name and the value by the space or the tab character. Delimit Source and python script path by the space or the tab character. Specify the value by the decimal number or the hexadecimal number. Specify Python script path by the absolute path or the relative to the project. When the head of the line starts by #, it treats as a comment line.
                               After CPU reset under breaking                     After CPU reset under breaking[0]  Specify the processing to be executed immediately after the CPU reset during a break, in the following format.<format>- SFR/IOR name value- Register name value- Source Python script path- # commentDelimit SFR/IOR name or Register name and the value by the space or the tab character. Delimit Source and python script path by the space or the tab character. Specify the value by the decimal number or the hexadecimal number. Specify Python script path by the absolute path or the relative to the project.　When the head of the line starts by #, it treats as a comment line.
                               Before running                                     Before running[0]                  Specify the processing to be executed immediately before starting an execution, in the following format.<format>- SFR/IOR name value- Register name value- Source Python script path- # commentDelimit SFR/IOR name or Register name and the value by the space or the tab character. Delimit Source and python script path by the space or the tab character. Specify the value by the decimal number or the hexadecimal number. Specify Python script path by the absolute path or the relative to the project.　When the head of the line starts by #, it treats as a comment line.
                               After breaking                                     After breaking[0]                  Specify the processing to be executed immediately after a break, in the following format.<format>- SFR/IOR name value- Register name value- Source Python script path- # commentDelimit SFR/IOR name or Register name and the value by the space or the tab character. Delimit Source and python script path by the space or the tab character. Specify the value by the decimal number or the hexadecimal number. Specify Python script path by the absolute path or the relative to the project.　When the head of the line starts by #, it treats as a comment line.
